# This file uses centimeters as units for non-parametric coordinates.

mtllib Ramp_01.mtl
g default
v -24.759918 -7.071068 31.830988
v -24.455084 -7.071068 27.957684
v -23.548084 -7.071068 24.179750
v -22.061249 -7.071067 20.590219
v -20.031197 -7.071067 17.277473
v -17.507908 -7.071068 14.323080
v -14.553515 -7.071068 11.799792
v -11.240768 -7.071068 9.769737
v -7.651236 -7.071068 8.282905
v -3.873305 -7.071068 7.375904
v 0.000000 -7.071068 7.071068
v 3.873305 -7.071068 7.375904
v 7.651236 -7.071068 8.282905
v 11.240768 -7.071068 9.769737
v 14.553515 -7.071068 11.799792
v 17.507908 -7.071068 14.323080
v 20.031197 -7.071067 17.277473
v 22.061249 -7.071067 20.590219
v 23.548084 -7.071068 24.179750
v 24.455084 -7.071068 27.957684
v 24.759918 -7.071068 31.830988
v -38.902058 7.071068 31.830988
v -38.423107 7.071067 25.745367
v -36.998055 7.071068 19.809591
v -34.661987 7.071068 14.169825
v -31.472425 7.071068 8.964933
v -27.507908 7.071068 4.323081
v -22.866056 7.071068 0.358564
v -17.661163 7.071067 -2.830997
v -12.021396 7.071068 -5.167066
v -6.085622 7.071068 -6.592119
v 0.000000 7.071068 -7.071068
v 6.085622 7.071068 -6.592119
v 12.021396 7.071068 -5.167066
v 17.661163 7.071067 -2.830997
v 22.866056 7.071068 0.358564
v 27.507908 7.071068 4.323081
v 31.472425 7.071068 8.964933
v 34.661987 7.071068 14.169825
v 36.998055 7.071068 19.809591
v 38.423107 7.071067 25.745367
v 38.902058 7.071068 31.830988
vt 0.000000 0.000000
vt 0.050000 0.000000
vt 0.100000 0.000000
vt 0.150000 0.000000
vt 0.200000 0.000000
vt 0.250000 0.000000
vt 0.300000 0.000000
vt 0.350000 0.000000
vt 0.400000 0.000000
vt 0.450000 0.000000
vt 0.500000 0.000000
vt 0.550000 0.000000
vt 0.600000 0.000000
vt 0.650000 0.000000
vt 0.700000 0.000000
vt 0.750000 0.000000
vt 0.800000 0.000000
vt 0.850000 0.000000
vt 0.900000 0.000000
vt 0.950000 0.000000
vt 1.000000 0.000000
vt 0.000000 0.200000
vt 0.050000 0.200000
vt 0.100000 0.200000
vt 0.150000 0.200000
vt 0.200000 0.200000
vt 0.250000 0.200000
vt 0.300000 0.200000
vt 0.350000 0.200000
vt 0.400000 0.200000
vt 0.450000 0.200000
vt 0.500000 0.200000
vt 0.550000 0.200000
vt 0.600000 0.200000
vt 0.650000 0.200000
vt 0.700000 0.200000
vt 0.750000 0.200000
vt 0.800000 0.200000
vt 0.850000 0.200000
vt 0.900000 0.200000
vt 0.950000 0.200000
vt 1.000000 0.200000
vn 0.706014 0.706015 0.055565
vn 0.698401 0.707107 0.110616
vn 0.698401 0.707107 0.110616
vn 0.706014 0.706014 0.055565
vn 0.672499 0.707107 0.218508
vn 0.672499 0.707107 0.218508
vn 0.630037 0.707107 0.321020
vn 0.630037 0.707107 0.321020
vn 0.572061 0.707107 0.415627
vn 0.572061 0.707107 0.415627
vn 0.500000 0.707107 0.500000
vn 0.500000 0.707107 0.500000
vn 0.415627 0.707107 0.572061
vn 0.415627 0.707107 0.572061
vn 0.321020 0.707107 0.630037
vn 0.321020 0.707107 0.630037
vn 0.218508 0.707107 0.672499
vn 0.218508 0.707107 0.672499
vn 0.110616 0.707107 0.698401
vn 0.110616 0.707107 0.698401
vn 0.000000 0.707107 0.707107
vn 0.000000 0.707107 0.707107
vn -0.110616 0.707107 0.698401
vn -0.110616 0.707107 0.698401
vn -0.218508 0.707107 0.672499
vn -0.218508 0.707107 0.672499
vn -0.321020 0.707107 0.630037
vn -0.321020 0.707107 0.630037
vn -0.415627 0.707107 0.572061
vn -0.415627 0.707107 0.572061
vn -0.500000 0.707107 0.500000
vn -0.500000 0.707107 0.500000
vn -0.572061 0.707107 0.415627
vn -0.572061 0.707107 0.415627
vn -0.630037 0.707107 0.321020
vn -0.630037 0.707107 0.321020
vn -0.672499 0.707107 0.218508
vn -0.672499 0.707107 0.218508
vn -0.698401 0.707107 0.110616
vn -0.698401 0.707107 0.110616
vn -0.706014 0.706014 0.055565
vn -0.706014 0.706014 0.055565
s 1
g pPlane1
usemtl initialShadingGroup
f 1/1/1 2/2/2 23/23/3 22/22/4
f 2/2/2 3/3/5 24/24/6 23/23/3
f 3/3/5 4/4/7 25/25/8 24/24/6
f 4/4/7 5/5/9 26/26/10 25/25/8
f 5/5/9 6/6/11 27/27/12 26/26/10
f 6/6/11 7/7/13 28/28/14 27/27/12
f 7/7/13 8/8/15 29/29/16 28/28/14
f 8/8/15 9/9/17 30/30/18 29/29/16
f 9/9/17 10/10/19 31/31/20 30/30/18
f 10/10/19 11/11/21 32/32/22 31/31/20
f 11/11/21 12/12/23 33/33/24 32/32/22
f 12/12/23 13/13/25 34/34/26 33/33/24
f 13/13/25 14/14/27 35/35/28 34/34/26
f 14/14/27 15/15/29 36/36/30 35/35/28
f 15/15/29 16/16/31 37/37/32 36/36/30
f 16/16/31 17/17/33 38/38/34 37/37/32
f 17/17/33 18/18/35 39/39/36 38/38/34
f 18/18/35 19/19/37 40/40/38 39/39/36
f 19/19/37 20/20/39 41/41/40 40/40/38
f 20/20/39 21/21/41 42/42/42 41/41/40
